<svg width="20" height="16" viewBox="0 0 20 16" fill="none" xmlns="http://www.w3.org/2000/svg">
<path d="M1.66671 1.39166L2.73337 0.333328L16.6667 14.2667L15.6084 15.3333L13.0417 12.7667C12.0834 13.0833 11.0667 13.25 10 13.25C5.83337 13.25 2.27504 10.6583 0.833374 6.99999C1.40837 5.53333 2.32504 4.24166 3.49171 3.21666L1.66671 1.39166ZM10 4.49999C10.6631 4.49999 11.299 4.76339 11.7678 5.23223C12.2366 5.70107 12.5 6.33695 12.5 6.99999C12.5005 7.2838 12.4526 7.56561 12.3584 7.83333L9.16671 4.64166C9.43443 4.54748 9.71623 4.49957 10 4.49999ZM10 0.749995C14.1667 0.749995 17.725 3.34166 19.1667 6.99999C18.4866 8.72767 17.3308 10.2273 15.8334 11.325L14.65 10.1333C15.8024 9.33614 16.7319 8.25754 17.35 6.99999C16.6763 5.62494 15.6304 4.46647 14.3311 3.65625C13.0318 2.84603 11.5313 2.41656 10 2.41666C9.09171 2.41666 8.20004 2.56666 7.36671 2.83333L6.08337 1.55833C7.28337 1.04166 8.60837 0.749995 10 0.749995ZM2.65004 6.99999C3.32374 8.37505 4.36968 9.53352 5.66898 10.3437C6.96828 11.154 8.46882 11.5834 10 11.5833C10.575 11.5833 11.1417 11.525 11.6667 11.4083L9.76671 9.49999C9.18684 9.43784 8.64573 9.17906 8.23335 8.76668C7.82098 8.35431 7.56219 7.81319 7.50004 7.23333L4.66671 4.39166C3.84171 5.09999 3.15004 5.98333 2.65004 6.99999Z" fill="black"/>
</svg>
