<svg width="14" height="15" viewBox="0 0 14 15" fill="none" xmlns="http://www.w3.org/2000/svg">
<path d="M3.16124 8.62718L2.11823 13.1436C2.08593 13.2804 2.09563 13.4237 2.14605 13.5548C2.19647 13.686 2.28528 13.7989 2.40087 13.8788C2.51646 13.9587 2.65346 14.0019 2.79398 14.0028C2.9345 14.0036 3.072 13.962 3.18854 13.8835L7.00006 11.3425L10.8116 13.8835C10.9308 13.9627 11.0714 14.0034 11.2145 14.0003C11.3576 13.9972 11.4963 13.9503 11.612 13.866C11.7276 13.7816 11.8147 13.6639 11.8614 13.5287C11.9082 13.3934 11.9124 13.247 11.8735 13.1093L10.5932 8.62928L13.7684 5.77186C13.8701 5.68029 13.9427 5.56092 13.9773 5.42852C14.0119 5.29611 14.0069 5.15647 13.9629 5.02688C13.919 4.89728 13.838 4.7834 13.73 4.69933C13.6221 4.61526 13.4918 4.56468 13.3554 4.55385L9.36467 4.23605L7.63776 0.413329C7.5827 0.290238 7.49319 0.185713 7.38003 0.11237C7.26687 0.0390266 7.13491 0 7.00006 0C6.86521 0 6.73325 0.0390266 6.62009 0.11237C6.50693 0.185713 6.41742 0.290238 6.36235 0.413329L4.63544 4.23605L0.644722 4.55315C0.51064 4.56378 0.382457 4.6128 0.275508 4.69437C0.16856 4.77593 0.087374 4.88658 0.0416638 5.01308C-0.00404629 5.13957 -0.0123452 5.27656 0.0177599 5.40765C0.0478651 5.53874 0.1151 5.65838 0.21142 5.75226L3.16124 8.62718Z" fill="#028888"/>
</svg>
