<svg width="9" height="5" viewBox="0 0 9 5" fill="none" xmlns="http://www.w3.org/2000/svg">
<path d="M0.546705 0.751709C0.546705 0.551668 0.596715 0.401638 0.746746 0.251607C1.04681 -0.048455 1.4969 -0.0984652 1.79696 0.201597L4.69756 2.80213L7.74819 0.201597C8.04825 -0.0484546 8.54835 -0.0484547 8.7984 0.301617C9.09846 0.601679 9.04845 1.05177 8.74839 1.35183L5.19766 4.40246C4.8976 4.65251 4.49752 4.65251 4.19746 4.40246L0.796756 1.35183C0.596715 1.2018 0.546705 1.00176 0.546705 0.751709Z" fill="#6F7782"/>
</svg>
