<svg width="20" height="20" viewBox="0 0 20 20" fill="none" xmlns="http://www.w3.org/2000/svg">
<path d="M13.0124 14.1406V15.6463H2.47266V14.1406C2.47266 14.1406 2.47266 11.1293 7.74251 11.1293C13.0124 11.1293 13.0124 14.1406 13.0124 14.1406ZM10.3774 6.98866C10.3774 6.46752 10.2229 5.95809 9.93337 5.52478C9.64384 5.09147 9.23232 4.75374 8.75085 4.55431C8.26938 4.35488 7.73958 4.3027 7.22846 4.40437C6.71733 4.50604 6.24783 4.75699 5.87933 5.12549C5.51083 5.49399 5.25988 5.96349 5.15821 6.47462C5.05654 6.98574 5.10872 7.51554 5.30815 7.99701C5.50759 8.47848 5.84531 8.88999 6.27862 9.17952C6.71193 9.46905 7.22137 9.62359 7.74251 9.62359C8.44133 9.62359 9.11154 9.34598 9.60568 8.85184C10.0998 8.35769 10.3774 7.68749 10.3774 6.98866ZM12.9672 11.1293C13.43 11.4874 13.8087 11.9426 14.0766 12.4629C14.3446 12.9832 14.4952 13.5558 14.518 14.1406V15.6463H17.5294V14.1406C17.5294 14.1406 17.5294 11.4078 12.9672 11.1293ZM12.2595 4.35374C11.7413 4.35085 11.2345 4.50578 10.8065 4.79791C11.2639 5.43687 11.5097 6.20292 11.5097 6.98866C11.5097 7.77441 11.2639 8.54046 10.8065 9.17942C11.2345 9.47155 11.7413 9.62647 12.2595 9.62359C12.9583 9.62359 13.6286 9.34598 14.1227 8.85184C14.6168 8.35769 14.8944 7.68749 14.8944 6.98866C14.8944 6.28984 14.6168 5.61963 14.1227 5.12549C13.6286 4.63135 12.9583 4.35374 12.2595 4.35374Z" fill="#787878"/>
</svg>
