<svg width="20" height="20" viewBox="0 0 20 20" fill="none" xmlns="http://www.w3.org/2000/svg">
<path d="M16.0803 10.0753C16.0051 10.0753 15.8545 10.1505 15.7792 10.2258L15.0264 10.9787L16.6073 12.5596L17.3602 11.8068C17.5107 11.6562 17.5107 11.3551 17.3602 11.2045L16.3815 10.2258C16.3062 10.1505 16.2309 10.0753 16.0803 10.0753ZM14.65 11.4304L10.0577 15.9474V17.5283H11.6386L16.2309 12.936L14.65 11.4304ZM16.0803 6.98863H10.0577V2.47162H16.0803V6.98863ZM10.0577 13.8093V8.49431H16.0803V8.56959C15.5082 8.56959 15.0038 8.87072 14.7177 9.16433L10.0577 13.8093ZM8.55198 9.99998H2.5293V2.47162H8.55198V9.99998ZM8.55198 16.0227H2.5293V11.5056H8.55198V16.0227Z" fill="#347C84"/>
</svg>
