<svg width="24" height="24" viewBox="0 0 24 24" fill="none" xmlns="http://www.w3.org/2000/svg">
<g clip-path="url(#clip0_802_36396)">
<path d="M11.6432 0.411304C5.70925 0.411304 0.792952 4.82922 0.0132159 10.5738L3.79295 10.5606C4.48018 6.8458 7.48018 4.32507 11.8943 4.32507C17.0881 4.32507 20.326 7.44282 19.7313 13.6518H9.2511H7.61234C7.86344 15.5224 9.52864 16.8624 12.2379 16.8624C13.652 16.8624 15.5154 16.345 16.3877 15.4561L18.8458 17.8176C17.2071 19.476 14.5374 20.2587 12.1718 20.2587C7.37445 20.2587 4.3348 17.6717 3.7533 13.6518L0 13.7446C0.753304 19.5291 5.68282 24 11.6432 24C18.1322 24 23.3921 18.7198 23.3921 12.2057C23.3921 5.69157 18.1322 0.411304 11.6432 0.411304Z" fill="#33414B"/>
<path fill-rule="evenodd" clip-rule="evenodd" d="M7.77081 10.587C8.33909 8.62348 10.0439 7.64172 12.1188 7.64172C14.3259 7.64172 15.8986 8.62348 16.1497 10.5737H7.77081V10.587Z" fill="#33414B"/>
</g>
<defs>
<clipPath id="clip0_802_36396">
<rect width="24" height="24" fill="white"/>
</clipPath>
</defs>
</svg>
