<svg width="129" height="24" viewBox="0 0 129 24" fill="none" xmlns="http://www.w3.org/2000/svg">
<g clip-path="url(#clip0_700_14230)">
<path d="M26.7961 10.1361C26.7961 5.90392 29.1625 4.90889 33.1416 4.90889H38.3369C44.6294 4.90889 45.4358 6.26212 45.3961 10.3616H40.9808V9.96362C40.9808 8.92879 40.2273 8.62365 38.9053 8.62365H34.1066C31.7799 8.62365 31.3437 9.72481 31.3437 11.5159V13.0681C31.3437 15.1643 31.7799 15.9603 33.8686 15.9603H38.588C40.5842 15.9603 41.1791 15.7613 41.1791 13.957H45.5944V15.3102C45.5944 17.7513 44.7219 19.6618 40.2802 19.6618H33.1548C29.1757 19.6618 26.8094 18.6668 26.8094 14.4346V10.1361H26.7961Z" fill="white"/>
<path d="M48.2516 5.06794H52.6669V15.8142H62.5949V19.529H48.2516V5.06794Z" fill="white"/>
<path d="M64.71 5.06794H69.1254V19.529H64.71V5.06794Z" fill="white"/>
<path d="M72.351 5.06794H84.394C88.5979 5.06794 89.6026 7.19066 89.6026 10.0165V11.2504C89.6026 13.4129 88.664 15.8805 85.5441 15.8805H76.7663V19.5157H72.351V5.06794ZM76.7663 12.2852H83.6273C84.6584 12.2852 85.055 11.6086 85.055 10.7462V10.189C85.055 9.20724 84.5791 8.65003 83.2439 8.65003H76.7531V12.2852H76.7663Z" fill="white"/>
<path d="M91.7308 14.7928H96.1462C96.1726 16.3318 96.7807 16.4512 98.0498 16.4512H103.457C104.395 16.4512 105.347 16.345 105.347 15.2306C105.347 13.9702 104.831 13.8906 99.1338 13.8906C92.4844 13.8906 91.7308 13.0946 91.7308 9.53907C91.7308 6.92547 91.9688 4.90889 97.5475 4.90889H103.721C108.811 4.90889 109.286 6.64687 109.286 9.18086V9.64521H104.871C104.871 8.58385 104.752 8.14604 102.716 8.14604H97.8251C96.8336 8.14604 96.1594 8.49098 96.1594 9.26047C96.1594 10.5208 96.7014 10.5606 101.434 10.5341C108.295 10.5076 109.895 10.9321 109.895 15.151C109.895 19.0515 108.586 19.6883 102.716 19.6883H97.3624C93.3436 19.6883 91.7308 18.9321 91.7308 15.7878V14.7928Z" fill="white"/>
<path d="M112.618 5.06794H128.376V8.42449H117.033V10.7462H127.781V13.7446H117.033V16.0663H128.64V19.5422H112.618V5.06794Z" fill="white"/>
<path d="M11.6465 0.411301C5.71087 0.411301 0.793177 4.82921 0.0132196 10.5738L3.79403 10.5606C4.48145 6.8458 7.4823 4.32507 11.8976 4.32507C17.093 4.32507 20.3318 7.44281 19.7369 13.6518H9.25373H7.61449C7.86567 15.5224 9.53134 16.8624 12.2414 16.8624C13.6559 16.8624 15.5198 16.345 16.3923 15.4561L18.8512 17.8176C17.2119 19.476 14.5416 20.2587 12.1753 20.2587C7.37654 20.2587 4.33603 17.6717 3.75437 13.6518L0 13.7446C0.753518 19.529 5.68443 24 11.6465 24C18.1373 24 23.3987 18.7198 23.3987 12.2057C23.3987 5.69157 18.1373 0.411301 11.6465 0.411301Z" fill="#EE7E00"/>
<path fill-rule="evenodd" clip-rule="evenodd" d="M7.77313 10.587C8.34158 8.62347 10.0469 7.64172 12.1224 7.64172C14.3301 7.64172 15.9032 8.62347 16.1544 10.5737H7.77313V10.587Z" fill="#EE7E00"/>
</g>
<defs>
<clipPath id="clip0_700_14230">
<rect width="128.64" height="24" fill="white"/>
</clipPath>
</defs>
</svg>
